C:\Users\yanis.touahri\Desktop\yanport-test\src\main\java\yanport\test\models\Direction.java
C:\Users\yanis.touahri\Desktop\yanport-test\src\main\java\yanport\test\models\Coordinates.java
C:\Users\yanis.touahri\Desktop\yanport-test\src\main\java\yanport\test\dao\ExecuteVacuumInstructionsDAO.java
C:\Users\yanis.touahri\Desktop\yanport-test\src\main\java\yanport\test\rotation_strategies\RotationContext.java
C:\Users\yanis.touahri\Desktop\yanport-test\src\main\java\yanport\test\movement_strategies\MovementStrategy.java
C:\Users\yanis.touahri\Desktop\yanport-test\src\main\java\yanport\test\models\BoardDimensions.java
C:\Users\yanis.touahri\Desktop\yanport-test\src\main\java\yanport\test\movement_strategies\MovementContext.java
C:\Users\yanis.touahri\Desktop\yanport-test\src\main\java\yanport\test\models\Instruction.java
C:\Users\yanis.touahri\Desktop\yanport-test\src\main\java\yanport\test\exceptions\OutOfBoardBoundException.java
C:\Users\yanis.touahri\Desktop\yanport-test\src\main\java\yanport\test\rotation_strategies\RotateLeftStrategy.java
C:\Users\yanis.touahri\Desktop\yanport-test\src\main\java\yanport\test\Main.java
C:\Users\yanis.touahri\Desktop\yanport-test\src\main\java\yanport\test\dao\ExecutableInstructionsDAO.java
C:\Users\yanis.touahri\Desktop\yanport-test\src\main\java\yanport\test\rotation_strategies\RotationStrategy.java
C:\Users\yanis.touahri\Desktop\yanport-test\src\main\java\yanport\test\movement_strategies\MoveEastStrategy.java
C:\Users\yanis.touahri\Desktop\yanport-test\src\main\java\yanport\test\models\Vacuum.java
C:\Users\yanis.touahri\Desktop\yanport-test\src\main\java\yanport\test\movement_strategies\MoveNorthStrategy.java
C:\Users\yanis.touahri\Desktop\yanport-test\src\main\java\yanport\test\movement_strategies\MoveWestStrategy.java
C:\Users\yanis.touahri\Desktop\yanport-test\src\main\java\yanport\test\rotation_strategies\RotateRightStrategy.java
C:\Users\yanis.touahri\Desktop\yanport-test\src\main\java\yanport\test\movement_strategies\MoveSouthStrategy.java
